Case #1: 13
Case #2: IMPOSSIBLE
Case #3: 7
Case #4: 8
Case #5: -5
Case #6: IMPOSSIBLE
Case #7: IMPOSSIBLE
Case #8: 166667
Case #9: 23016886520014
Case #10: -1246218
Case #11: 1657582
Case #12: 3300000
Case #13: IMPOSSIBLE
Case #14: 19945382659326
Case #15: 150015
Case #16: IMPOSSIBLE
Case #17: 36251968524264
Case #18: -871314
Case #19: IMPOSSIBLE
Case #20: IMPOSSIBLE
Case #21: 2893000412906
Case #22: 705103477
Case #23: 448835730
Case #24: 49662785375
Case #25: IMPOSSIBLE
Case #26: 4656703904
Case #27: 3947743969803
Case #28: 1319180835
Case #29: IMPOSSIBLE
Case #30: IMPOSSIBLE
Case #31: 878046
Case #32: IMPOSSIBLE
Case #33: 330204729
Case #34: 1
Case #35: IMPOSSIBLE
Case #36: 46230827158688
Case #37: IMPOSSIBLE
Case #38: 15038124822149
Case #39: IMPOSSIBLE
Case #40: IMPOSSIBLE
Case #41: 2549994
Case #42: 99932905
Case #43: 43471756492503
Case #44: IMPOSSIBLE
Case #45: IMPOSSIBLE
Case #46: IMPOSSIBLE
Case #47: -401470
Case #48: 398936266
Case #49: 1284199935703
Case #50: -500000000
Case #51: 1
Case #52: IMPOSSIBLE
Case #53: 16168931620332
Case #54: IMPOSSIBLE
Case #55: 8844150071
Case #56: 499999999
Case #57: 826357
Case #58: 499999999500000
Case #59: IMPOSSIBLE
Case #60: IMPOSSIBLE
Case #61: 23344691399024
Case #62: -713287
Case #63: -58011904
Case #64: 1849911
Case #65: 7
Case #66: 92025395937251
Case #67: IMPOSSIBLE
Case #68: 2500006
Case #69: 34712293706494
Case #70: 71263802679114
Case #71: 1074917556
Case #72: IMPOSSIBLE
Case #73: 499999999
Case #74: 480628574
Case #75: 104743576521833
Case #76: IMPOSSIBLE
Case #77: 41672
Case #78: IMPOSSIBLE
Case #79: 20073391711626
Case #80: 125000
Case #81: 134514368533453
Case #82: IMPOSSIBLE
Case #83: IMPOSSIBLE
Case #84: IMPOSSIBLE
Case #85: 1526513043
Case #86: 12985102196872
Case #87: IMPOSSIBLE
Case #88: IMPOSSIBLE
Case #89: IMPOSSIBLE
Case #90: 27495254033113
Case #91: -531149
Case #92: IMPOSSIBLE
Case #93: 171724203
Case #94: 7687783317635
Case #95: 9
Case #96: 1141223
Case #97: 82680560
Case #98: 2
Case #99: 1370656996
Case #100: IMPOSSIBLE
