100
6 1 1000000000000000
1 1 1 1 0 100 0
6 1 -100
1 1 1 1 0 100 0
452865 446685 -622777703665356
233342938 660793524 828042454 116664456 389923316 327575747 0
500000 80614 182218
4 0 724228742 501750760 816984740 11 0
463337 359632 424683418503592
212159175 57015548 894426120 975043328 510963331 794472805 0
500000 413524 1000000000000000
631300066 487673359 425865712 543126272 415231585 981660241 0
72623 34447 196100390904453
282569479 648489116 31870325 226110217 892335635 127922241 0
500000 10091 1000000000000000
140093802 950335931 983804374 78892184 766611322 763704463 0
500000 46131 -704858747925504
636968964 243624714 545121549 275382247 812145826 261011017 0
2 0 1000000000000000
1 1 0 0 0 1000000000 0
500000 0 781073205210142
17181 17181 0 0 17181 1000000000 0
22224 14052 -982460719585332
400929603 61583450 990086476 852853145 998164102 991394419 0
500000 500000 1000000000000000
141622140 133338259 830949956 213947455 869443834 555326161 0
500000 493132 1000000000000000
578785938 680607326 497160382 523538428 656229452 125422249 0
118244 65164 999161790651278
345108787 908023765 506252830 873024187 381577821 427685895 0
178369 15372 154548628197667
353255908 472681900 466462412 955176884 759718153 470656551 0
500000 100724 1000000000000000
647071193 97249657 999522881 190459194 241964172 427147909 0
60013 60013 1000000000000000
109561849 174434224 972695972 435650751 527244517 791491519 0
105021 79460 1000000000000000
613016519 107244486 215448627 651617817 731264191 760505935 0
225518 170504 -905657891209065
114669862 163744154 973767381 793778860 816879957 967009259 0
500000 500000 1000000000000000
999999999 999999999 0 0 999999999 1000000000 0
311299 243339 1000000000000000
710492371 925145271 154329464 613783384 424648259 430921773 0
51129 11279 -859333809244413
99933922 93349986 425662672 343128968 844768648 987543795 0
157773 0 -36933527306387
919952655 919952655 0 0 919952655 1000000000 0
497504 117672 989834030045845
284943495 682410999 713954731 114991136 328396649 787099910 0
427445 92742 417599285928805
756094829 227491915 900588312 723175695 532020852 284109355 0
311299 39935 602384480955016
253246334 857634258 824673494 671908685 729691951 86558563 0
500000 125000 125000
1 0 0 1 0 2 0
500000 500000 1000000000000000
67611744 161862878 43886961 972670344 28929343 92428045 0
500000 500000 25605119262384
269189602 702827967 507159121 503840041 788373879 139878569 0
73983 63292 425254531413128
518228677 390740909 870789081 441369192 191240400 944838099 0
189396 189396 197107585000755
31463712 644029548 783593568 251667741 585074777 73578753 0
311299 311299 964145122081710
271784927 344350315 240155661 547852121 717763463 54559437 0
407321 48554 29382569171004
380713034 548971061 894509144 476247058 529754847 500224109 0
34274 26454 638976465077323
294821877 388371445 621014771 312393887 348627998 613111651 0
315625 305031 -119554166676807
504786537 139496119 964774733 434760204 42416916 295633514 0
149690 117822 -741666842404588
214806340 47575953 504909875 341559892 832419486 106034679 0
3475 778 -1217026868123
386075374 754995451 622123122 644939625 512834698 482565212 0
331778 97048 161352947688004
360705328 142926167 464783744 264903061 426091386 184318411 0
500000 0 154030966871241
853543233 853543233 0 0 853543233 1000000000 0
277239 67355 823357072561750
9627348 59224641 98971989 408272585 791841705 395451047 0
500000 500000 1000000000000000
0 0 0 0 0 1000000000 0
178803 134644 -425332492753945
384561879 788803978 1286032 150847441 33429424 175126171 0
500000 0 1000000000000000
1 1 0 1 0 1000000000 0
488158 318112 -571739624467624
179927182 173345013 927077137 325517946 815227173 376581787 0
94056 92687 918596574001808
216366339 528647631 522925678 857514613 672882004 118092311 0
40727 7472 -980231744975868
888300450 830223882 143508977 390740527 996033193 410503887 0
483450 0 -499569079206788
969041915 969041915 0 0 969041915 1000000000 0
396310 315246 -737789888581829
94855376 138880898 158406732 988988857 576862184 887804405 0
2 2 1000000000000000
1 1 0 0 0 1000000000 0
500000 316855 986521
4 6 849171594 943254782 397639076 11 0
70084 42044 684535704067621
706785838 15079769 79239552 106114166 619651122 949690093 0
500000 464233 3475310
0 5 918295463 359570576 955934377 11 0
278494 3200 284519589010735
782747948 353417094 114847536 998916634 761261312 553142629 0
189396 7106 73212400190770
990148081 282372099 929875629 145529711 415331503 974490929 0
376745 373127 -791469277039912
396276143 332541263 146107865 395530939 886803985 310827313 0
149090 149090 1000000000000000
951660499 731069401 138229824 541905222 652969985 604604339 0
500000 86855 534058
6 2 449576599 679058141 667239271 11 0
102613 66170 -21496490231405
934428742 923704367 496419305 331502632 803994572 275405449 0
121282 0 -624934461874030
569877243 569877243 0 0 569877243 1000000000 0
500000 500000 -256737355129345
606473618 80550216 702710726 858525085 729953951 168324903 0
498741 498741 1000000000000000
440842425 285065503 6706849 33919683 270001534 472032729 0
500000 305 745503615993435
391008711 929525858 28989818 943434460 260803879 748885257 0
105021 105021 -872298769837942
21416161 69003984 592786100 587558385 464911657 361025893 0
105021 61999 706336871081502
187402635 478741302 934071119 815102290 249360780 291473267 0
500000 215969 250302
9 10 594517977 989053037 742620936 11 0
231312 184536 350813448930088
823292116 867651087 990884614 886896882 744174968 792541563 0
243309 207514 411126785416459
126805559 342396350 15978917 848576271 702761034 394175251 0
2 1 1000000000000000
1 1 0 0 0 1000000000 0
105333 104761 -737057292369605
991065095 259763278 980240437 751985827 377291511 599123931 0
500000 0 89463732137317
17718467 17718467 0 0 17718467 1000000000 0
500000 459141 666138650560992
648427638 33084882 641789212 448596672 810267986 989716523 0
29675 7884 -347581711510606
270274072 683312309 803839309 673748786 644651973 398883269 0
500000 326856 404079257349788
886081588 222720837 875679815 711992644 172882497 173026857 0
500000 261192 1043576
9 3 608887170 7084353 812067866 11 0
338685 0 -657059639112900
762671363 762671363 0 0 762671363 1000000000 0
410943 6293 -8758864295193
370936061 124398009 145690165 30728997 672844732 352601259 0
500000 500000 -142686221841675
160118368 840800774 617493382 609625676 21614698 915441805 0
243743 113508 -219401763277206
99572805 707703548 149549399 955739890 388870440 370351259 0
28503 8897 74064954374331
869006531 66318284 531106360 217380223 874389239 460691503 0
467941 59833 -601008472796244
450004910 420554469 18510601 620774224 501164149 410898321 0
317960 153163 -473310117982660
466417027 865760910 404591009 665379939 214778737 723616039 0
448906 196678 875196451818586
127148151 852762202 694989360 177662289 576579962 510157431 0
500000 500000 56191289239184
971809966 886784252 282253383 169008846 666655196 575348359 0
225518 225518 -659184366177559
710354019 300184604 107852903 389642830 777294671 793255803 0
500000 0 -78067439015168
316821403 316821403 0 0 316821403 1000000000 0
500000 233220 1688813
7 4 320262257 137159137 186488388 11 0
189396 156949 1000000000000000
200561977 736899849 840967212 524070235 282667325 118991163 0
225518 104724 1000000000000000
887572985 733784665 962358841 510826897 483407897 709634753 0
500000 466247 4641046
2 7 746097660 81029532 519079207 11 0
500000 500000 1000000000000000
913598476 308340438 343253156 719372092 755356041 133179005 0
184518 25779 265555902465167
737527692 506255121 458814272 792119806 575378363 741924561 0
394165 239402 -413833529696738
485082773 156577752 854495135 485621379 174508904 183614085 0
500000 500000 1000000000000000
969136020 485220727 602445835 135257256 145422155 116729629 0
136585 39574 599029028209510
525837268 212444249 827292793 863701253 161323314 561968667 0
248151 27228 -743925835127584
784327267 629747167 841881010 604430826 106438277 378728623 0
210147 36593 -450926466156131
312583155 440221023 75430163 346542691 384637706 164266681 0
240264 152702 117723802139617
384319222 92553120 843668260 313983634 586980938 635451183 0
496709 354742 216836188726537
344082897 638425005 583472840 959714650 791568493 818624847 0
48285 48285 1000000000000000
743016292 110992239 857637835 771740866 263632633 11917337 0
